\relax 
\providecommand\hyper@newdestlabel[2]{}
\providecommand\HyperFirstAtBeginDocument{\AtBeginDocument}
\HyperFirstAtBeginDocument{\ifx\hyper@anchor\@undefined
\global\let\oldcontentsline\contentsline
\gdef\contentsline#1#2#3#4{\oldcontentsline{#1}{#2}{#3}}
\global\let\oldnewlabel\newlabel
\gdef\newlabel#1#2{\newlabelxx{#1}#2}
\gdef\newlabelxx#1#2#3#4#5#6{\oldnewlabel{#1}{{#2}{#3}}}
\AtEndDocument{\ifx\hyper@anchor\@undefined
\let\contentsline\oldcontentsline
\let\newlabel\oldnewlabel
\fi}
\fi}
\global\let\hyper@last\relax 
\gdef\HyperFirstAtBeginDocument#1{#1}
\providecommand*\HyPL@Entry[1]{}
\HyPL@Entry{0<</S/D>>}
\@writefile{toc}{\contentsline {chapter}{\numberline {1}Wireframes}{2}{chapter.1}}
\@writefile{lof}{\addvspace {10\p@ }}
\@writefile{lot}{\addvspace {10\p@ }}
\@writefile{lol}{\addvspace {10\p@ }}
\@writefile{toc}{\contentsline {chapter}{\numberline {2}Breakdown}{3}{chapter.2}}
\@writefile{lof}{\addvspace {10\p@ }}
\@writefile{lot}{\addvspace {10\p@ }}
\@writefile{lol}{\addvspace {10\p@ }}
\@writefile{toc}{\contentsline {section}{\numberline {2.1}Home Activity}{3}{section.2.1}}
\@writefile{toc}{\contentsline {section}{\numberline {2.2}Add Car Activity}{3}{section.2.2}}
\@writefile{toc}{\contentsline {section}{\numberline {2.3}Detail Fragment}{4}{section.2.3}}
\@writefile{toc}{\contentsline {section}{\numberline {2.4}Maintenance Schedule Fragment}{4}{section.2.4}}
\@writefile{toc}{\contentsline {section}{\numberline {2.5}Completed Maintenance Fragment}{4}{section.2.5}}
\@writefile{toc}{\contentsline {section}{\numberline {2.6}Gas Stats Fragment}{5}{section.2.6}}
\@writefile{toc}{\contentsline {section}{\numberline {2.7}Gas Search Fragment}{5}{section.2.7}}
\@writefile{toc}{\contentsline {chapter}{\numberline {3}Challenges and Solutions}{5}{chapter.3}}
\@writefile{lof}{\addvspace {10\p@ }}
\@writefile{lot}{\addvspace {10\p@ }}
\@writefile{lol}{\addvspace {10\p@ }}
\@writefile{toc}{\contentsline {chapter}{\numberline {4}Code Repositories}{5}{chapter.4}}
\@writefile{lof}{\addvspace {10\p@ }}
\@writefile{lot}{\addvspace {10\p@ }}
\@writefile{lol}{\addvspace {10\p@ }}
